<?xml version="1.0" encoding="utf-8"?>
<!-- Generator: Adobe Illustrator 23.0.3, SVG Export Plug-In . SVG Version: 6.00 Build 0)  -->
<svg version="1.1" id="Layer_1" xmlns="http://www.w3.org/2000/svg" xmlns:xlink="http://www.w3.org/1999/xlink" x="0px" y="0px"
	 viewBox="0 0 398 169" style="enable-background:new 0 0 398 169;" xml:space="preserve">
<style type="text/css">
	.st0{fill:#2862AC;}
	.st1{fill:#C1C1C1;}
	.st2{fill:#ADADAD;}
	.st3{fill:#EAEAEA;}
</style>
<polygon class="st0" points="77.9,21.3 77.9,81.8 43.3,81.8 43.3,21.3 0,21.3 0,81.8 0,81.8 0,125.1 77.9,125.1 77.9,168.4 
	121.1,168.4 121.1,21.3 "/>
<polygon class="st0" points="354.7,21.3 354.7,81.8 320.1,81.8 320.1,21.3 276.9,21.3 276.9,81.8 276.9,81.8 276.9,125.1 
	354.7,125.1 354.7,168.4 398,168.4 398,125.1 398,81.8 398,21.3 "/>
<rect x="175.2" y="-0.4" class="st1" width="23.8" height="125.5"/>
<rect x="199" y="-0.4" class="st2" width="23.8" height="125.5"/>
<polygon class="st0" points="266.1,21.3 222.8,21.3 222.8,125.1 175.2,125.1 175.2,21.3 131.9,21.3 131.9,168.4 138.4,168.4 
	138.4,168.4 250.9,168.4 250.9,168.4 266.1,168.4 "/>
<g>
	<polygon class="st3" points="153.6,21.3 175.2,42.9 199,-0.4 157.9,-0.4 	"/>
	<polygon class="st3" points="240.1,-0.4 199,-0.4 222.8,42.9 244.4,21.3 	"/>
</g>
</svg>
